{"count":67,"next":"http://localhost:8001/value/?page=2","previous":null,"results":[{"id":1,"attribute":1,"name":"admin","description":"UFPE Openstack Admin role"},{"id":2,"attribute":2,"name":"administrator","description":"BRGB administrator role"},{"id":3,"attribute":1,"name":"professor_adjunto","description":"Professor Adjunto da UFPE"},{"id":4,"attribute":2,"name":"Professor","description":"BRGB Professor role"},{"id":5,"attribute":1,"name":"professor_assistente","description":"Professor Assistente da UFPE"},{"id":6,"attribute":2,"name":"lecturer","description":"BRGB Lecturer role"},{"id":7,"attribute":1,"name":"funcionario","description":"Funcionario da UFPE"},{"id":8,"attribute":2,"name":"staff","description":"BRGB Staff role"},{"id":9,"attribute":1,"name":"estudante_graduacao","description":"Estudante da Graduacao UFPE"},{"id":10,"attribute":2,"name":"undergrad","description":"BRGB undergraduate student role"}]}